MI part markdown
…
print(paste("The percentage of the normal entries that are left for", c("Georgia", "Japan", "Bulgaria", "Serbia", "Slovenia"), "are:", b/d))

## [1] "The percentage of the normal entries that are left for Georgia are: 0.669333333333333" 
## [2] "The percentage of the normal entries that are left for Japan are: 0.655109489051095"   
## [3] "The percentage of the normal entries that are left for Bulgaria are: 0.692307692307692"
## [4] "The percentage of the normal entries that are left for Serbia are: 0.785245901639344"  
## [5] "The percentage of the normal entries that are left for Slovenia are: 0.777242044358727"

Surprisingly, there are lots of entries which all the answers are negative, for example in Japan

Japan %>%
  filter(V152 < 0)

## # A tibble: 110 x 8
##    country  V152  V153  V154  V155  V156  V157  V161
##    <chr>   <dbl> <dbl> <dbl> <dbl> <dbl> <dbl> <dbl>
##  1 Japan      -2    -2    -2    -2    -2    -2    -2
##  2 Japan      -2    -2    -2    -2    -2    -2    -2
##  3 Japan      -2    -2    -2    -2    -2    -2    -2
##  4 Japan      -2    -2    -2    -2    -2    -2    -2
##  5 Japan      -2    -2    -2    -2    -2    -2    -2
##  6 Japan      -2     1     1     1    -2    -2     1
##  7 Japan      -2    -2    -2    -2    -2    -2    -2
##  8 Japan      -2    -2    -2    -2    -2    -2    -2
##  9 Japan      -2    -2    -2    -2    -2    -2    -2
## 10 Japan      -2    -2    -2    -2    -2    -2    -2
## # ... with 100 more rows

and Bulgaria

data_wv5_6up %>%
  filter(country == "Bulgaria") %>%
  filter(V152 <0)

## # A tibble: 120 x 8
##    country   V152  V153  V154  V155  V156  V157  V161
##    <chr>    <dbl> <dbl> <dbl> <dbl> <dbl> <dbl> <dbl>
##  1 Bulgaria    -1    -1    -1    -1    -1    -1    -1
##  2 Bulgaria    -1    -1    -1    -1    -1    -1    -1
##  3 Bulgaria    -1    -1    -1    -1    -1    -1    -1
##  4 Bulgaria    -1    -1    -1    -1    -1    -1    -1
##  5 Bulgaria    -1    -1    10    10     1    10    10
##  6 Bulgaria    -1    -1    10    10     1     8    10
##  7 Bulgaria    -1    -1    10     8     1    10    10
##  8 Bulgaria    -1    -1    10    10     1    10    10
##  9 Bulgaria    -1    -1     9     9    -1    -1     9
## 10 Bulgaria    -1     1    10    10    -1     8    10
## # ... with 110 more rows
…
